Beef,burger,7.99,450,bun;mustard;ketchup;beef meat;salt;lettuce
Chicken,chicken soup,6.99,390,chicken;chicken broth;mushroom
Juice,lemonade,2.79,120,lemons;sugar;water
Fish,fish sticks,6.49,530,Fish filet;butter;sugar;bread crumbs;spices;canola oil
Fizzy,coca cola can,1.29,150,coca cola formula;sugar;fizzy water
Fries,garlic fries,4.79,400,fries;salt;canola oil;garlic powder
Pasta,spaghetti with meatballs,13.99,850,spaghetti;tomatoe sauce;beef meatballs;spices;garlic
Rice,fried rice,6.99,420,rice;spices;canola oil;egg;scalions
Tea,green tea,0.99,0,green tea pack;hot water
Veggies,stirred vegetables,2.79,200,carrot;broccoli;cabbage;teriyaki sauce;salt;vegetable oil
Beef,cheese burger,8.99,550,bun;mustard;ketchup;beef meat;salt;lettuce;cheese
Chicken,chicken pie,6.99,390,chicken;pie;mushroom;carrots;cream;pastry
Juice,orange juice,3.79,140,real orange;sugar;water
Fish,salmon sauted,18.99,930,salmon;butter;sugar;spices;canola oil;bbq sauce
Fizzy,fanta can,1.29,150,fanta formula;sugar;fizzy water
Fries,regulier fries,3.79,400,fries;salt;canola oil
Pasta,lasagna,17.99,1050,lasagna strips;tomatoe sauce;beef;spices;cheese
Rice,soya rice,3.99,320,rice;spices;canola oil;scalions;soya sauce
Tea,black tea,0.98,0,black tea pack;hot water
Veggies,salad,5.29,300,carrot;lettuce;cabbage;ranch sauce;salt;cucumbers
Beef,beef stew,20.99,950,beef steaks;tomato sauce;stew broth;carrots;salt
Chicken,chicken nuggets,7.99,700,grounded chicken;oil;butter;bread crumbs
Juice,strawberry smoothie,6.99,200,real strawberries;bananas;yogurt;avocados;honey
Fish,fish nuggets,8.99,930,fish;oil;butter;bread crumbs
Fizzy,7up can,1.29,150,7up formula;sugar;fizzy water
Fries,curly fries,6.79,400,curly fries;salt;canola oil
Pasta,tomatoe pasta with basil,13.99,750,pasta;tomatoes;basil;spices;tomato sauce
Rice,white rice,1.99,400,rice;salt
Tea,matcha,2.99,0,japanses style green tea;hot water
Veggies,taboleh,7.99,400,parsley;onions;vinegar;olive oil;tomatoes
